.
├── 01-ESP32-硬件准备-ESP32-DevKitC V2 board.md
├── 02-ESP32-环境搭建-编译与烧写.md
├── 03-ESP-IDF-目录结构-模板工程分析笔记.md
├── 04-ESP32-代码调试-几种调试方法总结.md
├── 05-ESP32事件循环.md
├── 08-ESP32+激光传感器VL53L1x移植与调试（附源码）.md
├── 09-ESP32+陀螺仪加速度计MPU6050移植与调试.md
├── 10-ESP32+气压计MS5611移植与调试.md
├── 11-ESP32+三轴磁罗盘HMC5883L移植与调试.md
├── ESP32芯片命名规则.md
└── tree.txt

0 directories, 11 files
