.
├── [01]ESPlane2.0 改进方案探讨.md
├── [02]ESPlane2.0 调研国内外知名商业微型无人机产品.md
├── [03]ESPlane 2.0 调研国内外知名无人机开源方案汇总.md
├── [04]ESPlane1.0 Arduino代码调试记录.md
├── [05]ESPlane 2.0 -Crazyfile工程预览.md
├── [06]ESPlane 2.0 -校准与调试方法.md
├── [07]ESPlane 2.0 -Crazyfile源码预览.md
├── [08]ESPlane 2.0 -Crazyfile模块化实现方法.md
├── [09]ESPlane 2.0 -CRTP协议.md
├── [10]ESPlane 2.0 -cflib库移植.md
├── [11]ESPlane 2.0 -CFclient移植.md
├── [12]ESPlane 2.0 -crazyfile变量管理方案移植.md
├── [13]ESPlane 2.0 -传感器角度融合.md
├── [14]ESPlane 2.0 -控制系统.md
├── [15]ESPlane 2.0 -PID参数整定.md
├── [16]ESPlane 2.0 代码架构与启动过程.md
├── [17]ESPlane 2.0 -兼容ESPilot APP.md
├── [18]ESPlane 2.0 -多对多操作模式.md
├── a.txt
└── tree.txt

0 directories, 20 files
